{
  "_version": "1.17.0",
  "sap.app": {
    "id": "mysapui5app1",
    "type": "application",
    "i18n": "i18n/i18n.properties",
    "applicationVersion": {
      "version": "0.0.1"
    },
    "title": "{{appTitle}}",
    "description": "{{appDescription}}",
    "dataSources": {
      "IlluminatorOData": {
        "uri": "/XMII/IlluminatorOData/",
        "type": "OData",
        "settings": {
          "annotations": [],
          "localUri": "localService/IlluminatorOData/metadata.xml",
          "odataVersion": "2.0"
        }
      }
    }
  },
  "sap.ui": {
    "technology": "UI5",
    "icons": {
      "icon": "",
      "favIcon": "",
      "phone": "",
      "phone@2": "",
      "tablet": "",
      "tablet@2": ""
    },
    "deviceTypes": {
      "desktop": true,
      "tablet": true,
      "phone": true
    }
  },
  "sap.ui5": {
    "flexEnabled": true,
    "dependencies": {
      "minUI5Version": "1.71.39",
      "libs": {
        "sap.ui.core": {}
      }
    },
    "contentDensities": {
      "compact": true,
      "cozy": true
    },
    "models": {
      "i18n": {
        "type": "sap.ui.model.resource.ResourceModel",
        "settings": {
          "bundleName": "mysapui5app1.i18n.i18n"
        }
      },
      "app": {
        "type": "mysapui5app1.model.AppModel",
        "uri": "model/app.json"
      },      
      "": {
        "type": "sap.ui.model.odata.v2.ODataModel",
        "settings": {
            "defaultOperationMode": "Server",
            "defaultBindingMode": "OneTime",
            "defaultCountMode": "Request",
            "disableHeadRequestForToken": false,
            "json": false,
            "defaultUpdateMethod": "PUT",            
            "useBatch": false
        },
        "dataSource": "IlluminatorOData",
        "preload": true
    }      
    },
    "resources": {
      "css": [
        {
          "uri": "css/style.css"
        }
      ]
    },
    "routing": {
      "config": {
        "routerClass": "sap.m.routing.Router",
        "viewType": "XML",
        "async": true,
        "viewPath": "mysapui5app1.view",
        "controlAggregation": "pages",
        "controlId": "app",
        "clearControlAggregation": false
      },
      "routes": [
        {
          "name": "RouteView1",
          "pattern": "RouteView1",
          "target": [
            "TargetView1"
          ]
        }
      ],
      "targets": {
        "TargetView1": {
          "viewType": "XML",
          "transition": "slide",
          "clearControlAggregation": false,
          "viewId": "View1",
          "viewName": "View1"
        }
      }
    },
    "rootView": {
      "viewName": "mysapui5app1.view.View1",
      "type": "XML",
      "async": true,
      "id": "View1"
    }
  }
}
